﻿Sterbejahr,Geschlecht,Höhe,Breite,Tiefe,Volumen
1323,m,78,88,11,535392
1323,w,78,88,11,535392
1451,m,78,80,13,486720
1591,m,78,69,14,419796
1404,w,78,88,14,535392
1200,w,78,56,20,340704
1253,m,78,68,16,413712
1320,m,78,60,16,365040
1307,m,79,56,13,349496
1282,m,79,59,13,368219
1240,w,79,65,13,405665
1200,w,79,64,16,399424
1271,w,79,63,18,393183
1238,m,79,71,18,443111
1792,m,80,54,6,345600
1274,w,80,58,11,371200
1205,m,80,50,14,320000
1503,w,80,61,14,390400
1148,null,80,52,15,332800
1285,m,80,59,16,377600
1504,m,81,59,12,387099
1157,w,82,49,13,329476
1289,w,82,60,18,403440
1239,w,82,70,18,470680
1447,w,83,61,12,420229
1250,m,83,56,14,385784
1435,w,83,62,15,427118
1209,w,83,56,18,385784
1273,m,83,60,19,413340
1323,m,84,64,12,451584
1316,m,85,62,11,447950
1333,m,85,65,11,469625
1310,w,85,55,14,397375
1314,w,85,62,14,447950
1261,w,85,49,23,354025
1287,w,85,64,24,462400
1328,m,86,65,15,480740
1240,null,86,59,22,436364
1578,w,87,84,11,635796
1700,m,87,56,12,423864
1308,w,87,63,13,476847
1315,w,87,54,14,408726
1300,m,87,73,15,552537
1239,m,87,60,17,454140
1650,w,88,68,8,526592
1318,w,88,79,10,611776
1294,m,88,73,12,565312
1317,m,88,77,17,596288
1361,w,88,57,20,441408
1616,w,89,80,15,633680
1262,w,89,71,18,562391
1343,w,89,82,18,649522
1343,w,89,82,18,649522
1343,w,90,95,14,769500
1403,w,90,90,15,729000
1311,w,90,66,18,534600
1241,m,90,59,15,477900
1340,m,91,76,16,629356
1263,m,91,58,19,480298
1240,m,91,48,25,397488
1244,m,91,61,15,505141
1319,w,91,77,18,637637
1622,m,91,80,18,662480
1404,w,92,83,10,702512
1550,m,92,75,11,634800
1244,m,92,58,14,490912
1317,w,93,60,12,518940
1310,m,93,58,14,501642
1321,w,93,69,14,596781
1699,w,94,56,11,494816
1380,m,94,70,13,618520
1418,m,94,81,14,715716
1495,m,95,75,12,676875
1628,w,95,80,13,722000
1721,w,95,99,13,893475
1253,m,95,76,16,685900
1682,w,95,61,17,550525
1818,w,96,60,9,552960
1465,w,96,62,13,571392
1296,w,96,70,14,645120
1242,m,96,56,17,516096
1198,m,96,56,18,516096
1325,w,97,75,14,705675
1183,m,97,83,14,780947
1364,m,97,84,14,790356
1418,m,97,103,15,969127
1418,m,97,103,15,969127
1418,w,97,103,15,969127
1418,w,97,103,15,969127
1445,w,97,47,31,442223
1300,null,97,57,16,536313
1829,w,98,53,8,509012
1197,w,99,52,11,509652
1723,w,99,69,11,676269
1662,w,99,83,14,813483
1343,m,100,80,9,800000
1381,m,100,72,15,720000
1254,m,100,77,16,770000
1311,w,101,60,18,612060
1750,w,102,51,8,530604
1703,w,102,69,12,717876
1686,w,103,72,13,763848
1292,m,103,85,13,901765
1602,m,103,93,14,986637
1636,m,103,83,18,880547
1715,w,104,98,12,1059968
1715,w,104,98,12,1059968
1376,m,104,78,15,843648
1700,m,105,64,12,705600
1492,m,106,83,22,932588
1289,w,106,64,18,719104
1730,w,107,59,10,675491
1733,w,107,64,11,732736
1159,m,107,60,16,686940
1712,m,108,87,10,1014768
1307,m,109,67,15,796027
1624,m,110,84,12,1016400
1741,m,110,80,16,968000
1322,m,110,81,16,980100
1830,w,111,59,9,726939
1661,m,111,99,16,1219779
1661,w,111,99,16,1219779
1140,m,111,74,18,911754
1736,m,112,63,10,790272
1727,m,113,60,10,766140
1318,w,114,68,13,883728
1312,w,114,66,14,857736
1604,w,114,69,14,896724
1340,w,114,76,16,987696
1140,w,114,61,19,792756
1735,w,115,69,10,912525
1743,w,115,69,13,912525
1732,w,115,66,15,872850
1419,m,115,83,17,1097675
1703,w,116,76,12,1022656
1312,m,116,58,17,780448
1504,m,116,103,27,1385968
1504,w,116,103,27,1385968
1386,m,118,91,15,1267084
1296,m,118,88,27,1225312
1418,w,119,90,17,1274490
1418,m,119,90,17,1274490
1319,m,120,83,11,1195200
1541,m,120,91,15,1310400
1666,m,121,68,12,995588
1375,w,121,106,16,1551946
1377,w,121,106,16,1551946
1649,w,121,85,11,1244485
1758,w,123,65,10,983385
1561,w,123,95,15,1437255
1375,w,123,63,26,953127
1593,m,124,57,12,876432
1686,m,124,55,13,845680
1640,m,125,111,15,1734375
1630,m,125,80,16,1250000
1296,w,126,89,17,1412964
1583,w,126,60,19,952560
1309,m,127,68,14,1096772
1314,m,128,78,10,1277952
1702,m,128,84,13,1376256
1423,m,128,97,14,1589248
1666,m,130,81,13,1368900
1572,m,130,96,14,1622400
1659,m,130,96,14,1622400
1728,w,131,71,10,1218431
1323,m,132,81,13,1411344
1318,w,135,75,20,1366875
1354,m,140,87,15,1705200
1389,w,141,112,19,2226672
1390,m,141,112,19,2226672
1343,m,143,90,18,1840410
1341,m,143,90,18,1840410
1546,m,59,88,18,306328
1666,w,72,62,11,321408
1770,w,14,56,10,10976
1458,m,16,55,9,14080
1232,m,18,79,19,25596
1200,m,21,52,9,22932
1300,w,21,33,10,14553
1280,w,24,74,13,42624
1300,w,24,29,14,16704
1745,w,27,107,12,78003
1285,m,29,52,9,43732
1344,null,30,72,13,64800
1400,null,30,43,16,38700
1300,w,30,74,19,66600
1200,null,31,58,15,55738
1324,m,32,62,11,63488
1346,w,32,62,11,63488
1285,m,32,64,13,65536
1280,m,32,80,13,81920
1333,w,33,69,14,75141
1241,m,34,52,10,60112
1420,null,34,67,14,77452
1332,w,36,69,13,89424
1459,w,36,72,13,93312
1458,w,38,60,11,86640
1322,w,38,69,13,99636
1179,w,38,73,16,105412
1200,null,38,56,21,80864
1300,w,38,62,13,89528
1326,w,40,48,9,76800
1296,w,40,55,13,88000
1343,w,40,58,13,92800
1240,null,40,58,14,92800
1323,w,41,63,10,105903
1273,w,41,55,13,92455
1335,w,41,55,13,92455
1300,w,41,58,13,97498
1295,w,42,62,10,109368
1300,m,42,72,11,127008
1325,m,42,63,12,111132
1519,w,42,57,17,100548
1730,m,43,64,9,118336
1309,w,43,60,11,110940
1745,w,43,65,11,120185
1488,m,43,47,12,86903
1400,m,43,16,17,29584
1800,m,44,37,8,71632
1327,unbekannt,44,74,9,143264
1326,m,44,74,9,143264
1293,m,44,50,12,96800
1126,m,44,64,15,123904
1300,w,44,60,17,116160
1439,w,45,55,8,111375
1181,w,45,63,14,127575
1307,m,45,67,14,135675
1200,w,45,64,19,129600
1451,w,46,58,11,122728
1451,m,46,58,11,122728
1483,w,46,38,13,80408
1195,w,46,46,13,97336
1300,w,47,34,10,75106
1323,null,47,57,11,125913
1314,w,47,56,12,123704
1200,null,47,67,12,148003
1340,m,48,82,11,188928
1201,w,49,54,16,129654
1222,m,49,65,20,156065
1300,null,50,58,2,145000
1250,m,50,45,11,112500
1202,w,50,53,13,132500
1680,m,50,55,17,137500
1200,null,50,50,18,125000
1270,m,51,49,11,127449
1451,m,51,61,11,158661
1452,w,51,61,11,158661
1300,m,51,57,19,148257
1233,w,52,57,14,154128
1316,m,52,39,15,105456
1240,null,52,45,24,121680
1266,w,52,70,26,189280
1300,w,53,60,11,168540
1200,null,53,51,14,143259
1376,w,54,52,10,151632
1376,w,54,52,10,151632
1376,m,54,52,10,151632
1240,w,54,62,13,180792
1191,w,55,52,13,157300
1247,m,55,55,16,166375
1245,w,55,51,19,154275
1200,null,55,63,14,190575
1300,w,56,32,9,100352
1200,null,56,57,12,178752
1248,w,56,52,15,163072
1519,w,56,58,18,181888
1519,m,56,58,18,181888
1400,null,56,58,18,181888
1451,w,57,57,11,185193
1413,m,57,85,11,276165
1414,m,57,85,11,276165
1261,m,57,62,12,201438
1309,m,57,45,14,146205
1414,w,57,45,14,146205
1479,w,57,45,14,146205
1200,null,57,57,15,185193
1404,m,57,80,16,259920
1200,null,57,61,17,198189
1346,m,58,63,8,211932
1300,null,58,56,10,188384
1322,m,58,51,10,171564
1219,m,58,50,13,168200
1475,w,58,70,14,235480
1503,w,58,67,15,225388
1307,w,58,80,16,269120
1280,null,58,63,17,211932
1200,null,58,64,17,215296
1318,w,59,62,11,215822
1295,w,59,86,13,299366
1303,w,59,60,15,208860
1480,m,59,71,15,247151
1480,w,59,71,15,247151
1400,m,59,60,16,208860
1323,m,60,67,12,241200
1470,w,60,56,13,201600
1300,m,60,63,14,226800
1187,m,60,55,16,198000
1307,w,60,66,16,237600
1336,w,60,59,17,212400
1184,m,60,77,17,277200
1300,null,60,61,20,219600
1172,m,60,80,25,288000
1291,m,61,43,8,160003
1623,m,61,60,8,223260
1320,w,61,47,12,174887
1348,w,61,63,12,234423
1199,w,61,59,13,219539
1200,null,61,56,15,208376
1200,null,61,62,16,230702
1347,m,62,73,10,280612
1303,m,62,65,12,249860
1188,m,62,60,14,230640
1200,w,62,58,15,222952
1200,w,62,62,15,238328
1146,w,62,61,22,234484
1729,w,63,67,12,265923
1300,m,63,70,12,277830
1323,m,63,87,12,345303
1338,m,63,68,13,269892
1184,m,63,65,14,257985
1200,null,63,52,18,206388
1250,m,63,51,13,202419
1330,m,64,54,10,221184
1274,w,64,74,13,303104
1200,null,64,55,14,225280
1301,m,64,67,15,274432
1315,null,64,53,21,217088
1243,m,65,42,11,177450
1450,w,65,93,12,392925
1450,w,65,93,12,392925
1212,m,65,56,14,236600
1269,m,65,69,14,291525
1400,null,65,72,14,304200
1300,null,65,65,17,274625
1398,w,66,53,10,230868
1330,w,66,55,12,239580
1343,m,66,55,13,239580
1216,m,66,61,14,265716
1322,m,66,73,15,317988
1271,m,66,50,17,217800
1328,w,67,58,10,260362
1267,m,67,53,11,237917
1600,w,67,67,12,300763
1622,m,67,75,12,336675
1300,m,67,80,12,359120
1316,w,67,63,14,282807
1303,m,67,58,16,260362
1316,m,68,52,16,240448
1179,m,68,53,17,245072
1651,m,69,45,10,214245
1561,m,69,70,11,333270
1475,w,69,69,13,328509
1218,m,69,46,15,219006
1550,null,69,66,17,314226
1456,m,69,64,12,304704
1259,w,69,70,14,333270
1200,w,69,57,17,271377
1316,w,70,65,8,318500
1680,w,70,67,10,328300
1342,m,70,80,14,392000
1626,w,70,81,14,396900
1283,m,70,65,22,318500
1329,w,71,71,12,357911
1150,w,71,55,14,277255
1331,m,71,55,14,277255
1302,w,71,92,14,463772
1302,w,71,92,14,463772
1289,m,71,70,17,352870
1326,m,72,58,10,300672
1297,w,72,49,12,254016
1305,m,72,55,12,285120
1469,w,72,64,14,331776
1322,w,72,78,15,404352
1333,m,73,60,12,319740
1500,w,73,57,14,303753
1453,w,73,69,17,367701
1312,w,74,57,10,312132
1300,m,74,71,12,388796
1300,m,74,53,14,290228
1184,m,74,59,15,323084
1270,m,74,51,17,279276
1247,w,74,55,19,301180
1261,m,74,70,21,383320
1667,m,75,80,10,450000
1344,m,75,62,14,348750
1135,m,75,47,16,264375
1319,m,75,168,16,945000
1172,m,75,59,18,331875
1222,m,76,61,15,352336
1263,w,76,60,21,346560
1319,w,77,56,12,332024
1324,w,77,65,13,385385
1500,null,77,99,14,586971
1277,w,77,66,17,391314